%YAML 1.1
%TAG !u! tag:unity3d.com,2011:
--- !u!1045 &1
EditorBuildSettings:
  m_ObjectHideFlags: 0
  serializedVersion: 2
  m_Scenes:
  - enabled: 0
    path: Assets/Completed/Scenes/Main (Completed).unity
    guid: 00000000000000000000000000000000
  - enabled: 1
    path: Assets/_Scenes/Level1.unity
    guid: 3595d905d34154f4e88c59a188ca807d
  - enabled: 1
    path: Assets/_Scenes/Level2.unity
    guid: 31784873d84834ed589a7bccf2c6f433
  - enabled: 1
    path: Assets/_Scenes/ReplayDeath.unity
    guid: 9e145e1823fd749ef81412f3c499b61d
  - enabled: 1
    path: Assets/_Scenes/ReplayWin.unity
    guid: 39dde1849bff84aeea92265bfcbb8f3e
  - enabled: 1
    path: Assets/_Scenes/MainMenu.unity
    guid: 76822a680708e48c9ba4b21769295434
